{
    "L_car": 0.4,
    "a_max": 2.0,
    "boundary_polygon": [
        [
            0.0,
            0.0
        ],
        [
            23.0,
            0.0
        ],
        [
            23.0,
            24
        ],
        [
            0.0,
            20.0
        ]
    ],
    "goal_pos0": [
        20.0,
        20.0
    ],
    "goal_pos2": [
        20.0,
        22.0
    ],
    "goal_pos3": [
        22.0,
        20.0
    ],
    "goal_pos4": [
        22.0,
        22.0
    ],
    "goal_vel": [
        1.0,
        -1.0
    ],
    "item_0_0": [
        1.0,
        1.0
    ],
    "item_0_1": [
        1.0,
        1.9166666666666665
    ],
    "item_0_10": [
        1.0,
        10.166666666666668
    ],
    "item_0_11": [
        1.0,
        11.083333333333332
    ],
    "item_0_12": [
        1.0,
        12.0
    ],
    "item_0_13": [
        1.0,
        12.916666666666666
    ],
    "item_0_14": [
        1.0,
        13.833333333333334
    ],
    "item_0_15": [
        1.0,
        14.75
    ],
    "item_0_16": [
        1.0,
        15.666666666666666
    ],
    "item_0_17": [
        1.0,
        16.583333333333336
    ],
    "item_0_18": [
        1.0,
        17.5
    ],
    "item_0_19": [
        1.0,
        18.416666666666664
    ],
    "item_0_2": [
        1.0,
        2.833333333333333
    ],
    "item_0_20": [
        1.0,
        19.333333333333336
    ],
    "item_0_3": [
        1.0,
        3.75
    ],
    "item_0_4": [
        1.0,
        4.666666666666666
    ],
    "item_0_5": [
        1.0,
        5.583333333333334
    ],
    "item_0_6": [
        1.0,
        6.5
    ],
    "item_0_7": [
        1.0,
        7.416666666666667
    ],
    "item_0_8": [
        1.0,
        8.333333333333332
    ],
    "item_0_9": [
        1.0,
        9.25
    ],
    "item_10_0": [
        10.166666666666668,
        1.0
    ],
    "item_10_1": [
        10.166666666666668,
        1.9166666666666665
    ],
    "item_10_10": [
        10.166666666666668,
        10.166666666666668
    ],
    "item_10_11": [
        10.166666666666668,
        11.083333333333332
    ],
    "item_10_12": [
        10.166666666666668,
        12.0
    ],
    "item_10_13": [
        10.166666666666668,
        12.916666666666666
    ],
    "item_10_14": [
        10.166666666666668,
        13.833333333333334
    ],
    "item_10_15": [
        10.166666666666668,
        14.75
    ],
    "item_10_16": [
        10.166666666666668,
        15.666666666666666
    ],
    "item_10_17": [
        10.166666666666668,
        16.583333333333336
    ],
    "item_10_18": [
        10.166666666666668,
        17.5
    ],
    "item_10_19": [
        10.166666666666668,
        18.416666666666664
    ],
    "item_10_2": [
        10.166666666666668,
        2.833333333333333
    ],
    "item_10_20": [
        10.166666666666668,
        19.333333333333336
    ],
    "item_10_21": [
        10.166666666666668,
        20.25
    ],
    "item_10_22": [
        10.166666666666668,
        21.166666666666664
    ],
    "item_10_3": [
        10.166666666666668,
        3.75
    ],
    "item_10_4": [
        10.166666666666668,
        4.666666666666666
    ],
    "item_10_5": [
        10.166666666666668,
        5.583333333333334
    ],
    "item_10_6": [
        10.166666666666668,
        6.5
    ],
    "item_10_7": [
        10.166666666666668,
        7.416666666666667
    ],
    "item_10_8": [
        10.166666666666668,
        8.333333333333332
    ],
    "item_10_9": [
        10.166666666666668,
        9.25
    ],
    "item_11_0": [
        11.083333333333332,
        1.0
    ],
    "item_11_1": [
        11.083333333333332,
        1.9166666666666665
    ],
    "item_11_10": [
        11.083333333333332,
        10.166666666666668
    ],
    "item_11_11": [
        11.083333333333332,
        11.083333333333332
    ],
    "item_11_12": [
        11.083333333333332,
        12.0
    ],
    "item_11_13": [
        11.083333333333332,
        12.916666666666666
    ],
    "item_11_14": [
        11.083333333333332,
        13.833333333333334
    ],
    "item_11_15": [
        11.083333333333332,
        14.75
    ],
    "item_11_16": [
        11.083333333333332,
        15.666666666666666
    ],
    "item_11_19": [
        11.083333333333332,
        18.416666666666664
    ],
    "item_11_2": [
        11.083333333333332,
        2.833333333333333
    ],
    "item_11_20": [
        11.083333333333332,
        19.333333333333336
    ],
    "item_11_21": [
        11.083333333333332,
        20.25
    ],
    "item_11_22": [
        11.083333333333332,
        21.166666666666664
    ],
    "item_11_3": [
        11.083333333333332,
        3.75
    ],
    "item_11_4": [
        11.083333333333332,
        4.666666666666666
    ],
    "item_11_5": [
        11.083333333333332,
        5.583333333333334
    ],
    "item_11_6": [
        11.083333333333332,
        6.5
    ],
    "item_11_7": [
        11.083333333333332,
        7.416666666666667
    ],
    "item_11_8": [
        11.083333333333332,
        8.333333333333332
    ],
    "item_11_9": [
        11.083333333333332,
        9.25
    ],
    "item_12_0": [
        12.0,
        1.0
    ],
    "item_12_1": [
        12.0,
        1.9166666666666665
    ],
    "item_12_10": [
        12.0,
        10.166666666666668
    ],
    "item_12_11": [
        12.0,
        11.083333333333332
    ],
    "item_12_12": [
        12.0,
        12.0
    ],
    "item_12_13": [
        12.0,
        12.916666666666666
    ],
    "item_12_14": [
        12.0,
        13.833333333333334
    ],
    "item_12_15": [
        12.0,
        14.75
    ],
    "item_12_19": [
        12.0,
        18.416666666666664
    ],
    "item_12_2": [
        12.0,
        2.833333333333333
    ],
    "item_12_20": [
        12.0,
        19.333333333333336
    ],
    "item_12_21": [
        12.0,
        20.25
    ],
    "item_12_22": [
        12.0,
        21.166666666666664
    ],
    "item_12_23": [
        12.0,
        22.083333333333336
    ],
    "item_12_3": [
        12.0,
        3.75
    ],
    "item_12_4": [
        12.0,
        4.666666666666666
    ],
    "item_12_5": [
        12.0,
        5.583333333333334
    ],
    "item_12_6": [
        12.0,
        6.5
    ],
    "item_12_7": [
        12.0,
        7.416666666666667
    ],
    "item_12_8": [
        12.0,
        8.333333333333332
    ],
    "item_12_9": [
        12.0,
        9.25
    ],
    "item_13_0": [
        12.916666666666666,
        1.0
    ],
    "item_13_1": [
        12.916666666666666,
        1.9166666666666665
    ],
    "item_13_12": [
        12.916666666666666,
        12.0
    ],
    "item_13_13": [
        12.916666666666666,
        12.916666666666666
    ],
    "item_13_14": [
        12.916666666666666,
        13.833333333333334
    ],
    "item_13_15": [
        12.916666666666666,
        14.75
    ],
    "item_13_16": [
        12.916666666666666,
        15.666666666666666
    ],
    "item_13_19": [
        12.916666666666666,
        18.416666666666664
    ],
    "item_13_2": [
        12.916666666666666,
        2.833333333333333
    ],
    "item_13_20": [
        12.916666666666666,
        19.333333333333336
    ],
    "item_13_21": [
        12.916666666666666,
        20.25
    ],
    "item_13_22": [
        12.916666666666666,
        21.166666666666664
    ],
    "item_13_23": [
        12.916666666666666,
        22.083333333333336
    ],
    "item_13_3": [
        12.916666666666666,
        3.75
    ],
    "item_13_4": [
        12.916666666666666,
        4.666666666666666
    ],
    "item_13_5": [
        12.916666666666666,
        5.583333333333334
    ],
    "item_13_6": [
        12.916666666666666,
        6.5
    ],
    "item_14_0": [
        13.833333333333334,
        1.0
    ],
    "item_14_1": [
        13.833333333333334,
        1.9166666666666665
    ],
    "item_14_12": [
        13.833333333333334,
        12.0
    ],
    "item_14_13": [
        13.833333333333334,
        12.916666666666666
    ],
    "item_14_14": [
        13.833333333333334,
        13.833333333333334
    ],
    "item_14_15": [
        13.833333333333334,
        14.75
    ],
    "item_14_16": [
        13.833333333333334,
        15.666666666666666
    ],
    "item_14_17": [
        13.833333333333334,
        16.583333333333336
    ],
    "item_14_19": [
        13.833333333333334,
        18.416666666666664
    ],
    "item_14_2": [
        13.833333333333334,
        2.833333333333333
    ],
    "item_14_20": [
        13.833333333333334,
        19.333333333333336
    ],
    "item_14_21": [
        13.833333333333334,
        20.25
    ],
    "item_14_22": [
        13.833333333333334,
        21.166666666666664
    ],
    "item_14_23": [
        13.833333333333334,
        22.083333333333336
    ],
    "item_14_3": [
        13.833333333333334,
        3.75
    ],
    "item_14_4": [
        13.833333333333334,
        4.666666666666666
    ],
    "item_14_5": [
        13.833333333333334,
        5.583333333333334
    ],
    "item_14_6": [
        13.833333333333334,
        6.5
    ],
    "item_15_0": [
        14.75,
        1.0
    ],
    "item_15_1": [
        14.75,
        1.9166666666666665
    ],
    "item_15_10": [
        14.75,
        10.166666666666668
    ],
    "item_15_11": [
        14.75,
        11.083333333333332
    ],
    "item_15_12": [
        14.75,
        12.0
    ],
    "item_15_13": [
        14.75,
        12.916666666666666
    ],
    "item_15_14": [
        14.75,
        13.833333333333334
    ],
    "item_15_15": [
        14.75,
        14.75
    ],
    "item_15_16": [
        14.75,
        15.666666666666666
    ],
    "item_15_17": [
        14.75,
        16.583333333333336
    ],
    "item_15_18": [
        14.75,
        17.5
    ],
    "item_15_19": [
        14.75,
        18.416666666666664
    ],
    "item_15_2": [
        14.75,
        2.833333333333333
    ],
    "item_15_20": [
        14.75,
        19.333333333333336
    ],
    "item_15_21": [
        14.75,
        20.25
    ],
    "item_15_22": [
        14.75,
        21.166666666666664
    ],
    "item_15_23": [
        14.75,
        22.083333333333336
    ],
    "item_15_3": [
        14.75,
        3.75
    ],
    "item_15_4": [
        14.75,
        4.666666666666666
    ],
    "item_15_5": [
        14.75,
        5.583333333333334
    ],
    "item_15_6": [
        14.75,
        6.5
    ],
    "item_15_7": [
        14.75,
        7.416666666666667
    ],
    "item_15_8": [
        14.75,
        8.333333333333332
    ],
    "item_15_9": [
        14.75,
        9.25
    ],
    "item_16_0": [
        15.666666666666666,
        1.0
    ],
    "item_16_1": [
        15.666666666666666,
        1.9166666666666665
    ],
    "item_16_10": [
        15.666666666666666,
        10.166666666666668
    ],
    "item_16_11": [
        15.666666666666666,
        11.083333333333332
    ],
    "item_16_12": [
        15.666666666666666,
        12.0
    ],
    "item_16_13": [
        15.666666666666666,
        12.916666666666666
    ],
    "item_16_14": [
        15.666666666666666,
        13.833333333333334
    ],
    "item_16_15": [
        15.666666666666666,
        14.75
    ],
    "item_16_16": [
        15.666666666666666,
        15.666666666666666
    ],
    "item_16_17": [
        15.666666666666666,
        16.583333333333336
    ],
    "item_16_18": [
        15.666666666666666,
        17.5
    ],
    "item_16_19": [
        15.666666666666666,
        18.416666666666664
    ],
    "item_16_2": [
        15.666666666666666,
        2.833333333333333
    ],
    "item_16_20": [
        15.666666666666666,
        19.333333333333336
    ],
    "item_16_21": [
        15.666666666666666,
        20.25
    ],
    "item_16_22": [
        15.666666666666666,
        21.166666666666664
    ],
    "item_16_23": [
        15.666666666666666,
        22.083333333333336
    ],
    "item_16_3": [
        15.666666666666666,
        3.75
    ],
    "item_16_4": [
        15.666666666666666,
        4.666666666666666
    ],
    "item_16_5": [
        15.666666666666666,
        5.583333333333334
    ],
    "item_16_6": [
        15.666666666666666,
        6.5
    ],
    "item_16_7": [
        15.666666666666666,
        7.416666666666667
    ],
    "item_16_8": [
        15.666666666666666,
        8.333333333333332
    ],
    "item_16_9": [
        15.666666666666666,
        9.25
    ],
    "item_17_0": [
        16.583333333333336,
        1.0
    ],
    "item_17_1": [
        16.583333333333336,
        1.9166666666666665
    ],
    "item_17_10": [
        16.583333333333336,
        10.166666666666668
    ],
    "item_17_11": [
        16.583333333333336,
        11.083333333333332
    ],
    "item_17_12": [
        16.583333333333336,
        12.0
    ],
    "item_17_13": [
        16.583333333333336,
        12.916666666666666
    ],
    "item_17_14": [
        16.583333333333336,
        13.833333333333334
    ],
    "item_17_15": [
        16.583333333333336,
        14.75
    ],
    "item_17_16": [
        16.583333333333336,
        15.666666666666666
    ],
    "item_17_17": [
        16.583333333333336,
        16.583333333333336
    ],
    "item_17_18": [
        16.583333333333336,
        17.5
    ],
    "item_17_19": [
        16.583333333333336,
        18.416666666666664
    ],
    "item_17_2": [
        16.583333333333336,
        2.833333333333333
    ],
    "item_17_20": [
        16.583333333333336,
        19.333333333333336
    ],
    "item_17_21": [
        16.583333333333336,
        20.25
    ],
    "item_17_22": [
        16.583333333333336,
        21.166666666666664
    ],
    "item_17_23": [
        16.583333333333336,
        22.083333333333336
    ],
    "item_17_3": [
        16.583333333333336,
        3.75
    ],
    "item_17_4": [
        16.583333333333336,
        4.666666666666666
    ],
    "item_17_5": [
        16.583333333333336,
        5.583333333333334
    ],
    "item_17_6": [
        16.583333333333336,
        6.5
    ],
    "item_17_7": [
        16.583333333333336,
        7.416666666666667
    ],
    "item_17_8": [
        16.583333333333336,
        8.333333333333332
    ],
    "item_17_9": [
        16.583333333333336,
        9.25
    ],
    "item_18_0": [
        17.5,
        1.0
    ],
    "item_18_1": [
        17.5,
        1.9166666666666665
    ],
    "item_18_10": [
        17.5,
        10.166666666666668
    ],
    "item_18_11": [
        17.5,
        11.083333333333332
    ],
    "item_18_12": [
        17.5,
        12.0
    ],
    "item_18_13": [
        17.5,
        12.916666666666666
    ],
    "item_18_14": [
        17.5,
        13.833333333333334
    ],
    "item_18_15": [
        17.5,
        14.75
    ],
    "item_18_16": [
        17.5,
        15.666666666666666
    ],
    "item_18_17": [
        17.5,
        16.583333333333336
    ],
    "item_18_18": [
        17.5,
        17.5
    ],
    "item_18_19": [
        17.5,
        18.416666666666664
    ],
    "item_18_2": [
        17.5,
        2.833333333333333
    ],
    "item_18_20": [
        17.5,
        19.333333333333336
    ],
    "item_18_21": [
        17.5,
        20.25
    ],
    "item_18_22": [
        17.5,
        21.166666666666664
    ],
    "item_18_23": [
        17.5,
        22.083333333333336
    ],
    "item_18_24": [
        17.5,
        23.0
    ],
    "item_18_3": [
        17.5,
        3.75
    ],
    "item_18_4": [
        17.5,
        4.666666666666666
    ],
    "item_18_5": [
        17.5,
        5.583333333333334
    ],
    "item_18_6": [
        17.5,
        6.5
    ],
    "item_18_7": [
        17.5,
        7.416666666666667
    ],
    "item_18_8": [
        17.5,
        8.333333333333332
    ],
    "item_18_9": [
        17.5,
        9.25
    ],
    "item_19_0": [
        18.416666666666664,
        1.0
    ],
    "item_19_1": [
        18.416666666666664,
        1.9166666666666665
    ],
    "item_19_12": [
        18.416666666666664,
        12.0
    ],
    "item_19_13": [
        18.416666666666664,
        12.916666666666666
    ],
    "item_19_14": [
        18.416666666666664,
        13.833333333333334
    ],
    "item_19_15": [
        18.416666666666664,
        14.75
    ],
    "item_19_16": [
        18.416666666666664,
        15.666666666666666
    ],
    "item_19_17": [
        18.416666666666664,
        16.583333333333336
    ],
    "item_19_18": [
        18.416666666666664,
        17.5
    ],
    "item_19_19": [
        18.416666666666664,
        18.416666666666664
    ],
    "item_19_20": [
        18.416666666666664,
        19.333333333333336
    ],
    "item_19_21": [
        18.416666666666664,
        20.25
    ],
    "item_19_22": [
        18.416666666666664,
        21.166666666666664
    ],
    "item_19_23": [
        18.416666666666664,
        22.083333333333336
    ],
    "item_19_24": [
        18.416666666666664,
        23.0
    ],
    "item_19_4": [
        18.416666666666664,
        4.666666666666666
    ],
    "item_19_5": [
        18.416666666666664,
        5.583333333333334
    ],
    "item_19_6": [
        18.416666666666664,
        6.5
    ],
    "item_1_0": [
        1.9166666666666665,
        1.0
    ],
    "item_1_1": [
        1.9166666666666665,
        1.9166666666666665
    ],
    "item_1_10": [
        1.9166666666666665,
        10.166666666666668
    ],
    "item_1_11": [
        1.9166666666666665,
        11.083333333333332
    ],
    "item_1_12": [
        1.9166666666666665,
        12.0
    ],
    "item_1_13": [
        1.9166666666666665,
        12.916666666666666
    ],
    "item_1_14": [
        1.9166666666666665,
        13.833333333333334
    ],
    "item_1_15": [
        1.9166666666666665,
        14.75
    ],
    "item_1_16": [
        1.9166666666666665,
        15.666666666666666
    ],
    "item_1_17": [
        1.9166666666666665,
        16.583333333333336
    ],
    "item_1_19": [
        1.9166666666666665,
        18.416666666666664
    ],
    "item_1_2": [
        1.9166666666666665,
        2.833333333333333
    ],
    "item_1_20": [
        1.9166666666666665,
        19.333333333333336
    ],
    "item_1_21": [
        1.9166666666666665,
        20.25
    ],
    "item_1_3": [
        1.9166666666666665,
        3.75
    ],
    "item_1_4": [
        1.9166666666666665,
        4.666666666666666
    ],
    "item_1_5": [
        1.9166666666666665,
        5.583333333333334
    ],
    "item_1_6": [
        1.9166666666666665,
        6.5
    ],
    "item_1_7": [
        1.9166666666666665,
        7.416666666666667
    ],
    "item_1_8": [
        1.9166666666666665,
        8.333333333333332
    ],
    "item_1_9": [
        1.9166666666666665,
        9.25
    ],
    "item_20_0": [
        19.333333333333336,
        1.0
    ],
    "item_20_1": [
        19.333333333333336,
        1.9166666666666665
    ],
    "item_20_12": [
        19.333333333333336,
        12.0
    ],
    "item_20_13": [
        19.333333333333336,
        12.916666666666666
    ],
    "item_20_14": [
        19.333333333333336,
        13.833333333333334
    ],
    "item_20_15": [
        19.333333333333336,
        14.75
    ],
    "item_20_16": [
        19.333333333333336,
        15.666666666666666
    ],
    "item_20_17": [
        19.333333333333336,
        16.583333333333336
    ],
    "item_20_18": [
        19.333333333333336,
        17.5
    ],
    "item_20_19": [
        19.333333333333336,
        18.416666666666664
    ],
    "item_20_20": [
        19.333333333333336,
        19.333333333333336
    ],
    "item_20_21": [
        19.333333333333336,
        20.25
    ],
    "item_20_22": [
        19.333333333333336,
        21.166666666666664
    ],
    "item_20_23": [
        19.333333333333336,
        22.083333333333336
    ],
    "item_20_24": [
        19.333333333333336,
        23.0
    ],
    "item_20_4": [
        19.333333333333336,
        4.666666666666666
    ],
    "item_20_5": [
        19.333333333333336,
        5.583333333333334
    ],
    "item_20_6": [
        19.333333333333336,
        6.5
    ],
    "item_21_0": [
        20.25,
        1.0
    ],
    "item_21_1": [
        20.25,
        1.9166666666666665
    ],
    "item_21_10": [
        20.25,
        10.166666666666668
    ],
    "item_21_11": [
        20.25,
        11.083333333333332
    ],
    "item_21_12": [
        20.25,
        12.0
    ],
    "item_21_13": [
        20.25,
        12.916666666666666
    ],
    "item_21_14": [
        20.25,
        13.833333333333334
    ],
    "item_21_15": [
        20.25,
        14.75
    ],
    "item_21_16": [
        20.25,
        15.666666666666666
    ],
    "item_21_17": [
        20.25,
        16.583333333333336
    ],
    "item_21_18": [
        20.25,
        17.5
    ],
    "item_21_19": [
        20.25,
        18.416666666666664
    ],
    "item_21_2": [
        20.25,
        2.833333333333333
    ],
    "item_21_20": [
        20.25,
        19.333333333333336
    ],
    "item_21_21": [
        20.25,
        20.25
    ],
    "item_21_22": [
        20.25,
        21.166666666666664
    ],
    "item_21_23": [
        20.25,
        22.083333333333336
    ],
    "item_21_24": [
        20.25,
        23.0
    ],
    "item_21_3": [
        20.25,
        3.75
    ],
    "item_21_4": [
        20.25,
        4.666666666666666
    ],
    "item_21_5": [
        20.25,
        5.583333333333334
    ],
    "item_21_6": [
        20.25,
        6.5
    ],
    "item_21_7": [
        20.25,
        7.416666666666667
    ],
    "item_21_8": [
        20.25,
        8.333333333333332
    ],
    "item_21_9": [
        20.25,
        9.25
    ],
    "item_22_0": [
        21.166666666666664,
        1.0
    ],
    "item_22_1": [
        21.166666666666664,
        1.9166666666666665
    ],
    "item_22_10": [
        21.166666666666664,
        10.166666666666668
    ],
    "item_22_11": [
        21.166666666666664,
        11.083333333333332
    ],
    "item_22_12": [
        21.166666666666664,
        12.0
    ],
    "item_22_13": [
        21.166666666666664,
        12.916666666666666
    ],
    "item_22_14": [
        21.166666666666664,
        13.833333333333334
    ],
    "item_22_15": [
        21.166666666666664,
        14.75
    ],
    "item_22_16": [
        21.166666666666664,
        15.666666666666666
    ],
    "item_22_17": [
        21.166666666666664,
        16.583333333333336
    ],
    "item_22_18": [
        21.166666666666664,
        17.5
    ],
    "item_22_19": [
        21.166666666666664,
        18.416666666666664
    ],
    "item_22_2": [
        21.166666666666664,
        2.833333333333333
    ],
    "item_22_20": [
        21.166666666666664,
        19.333333333333336
    ],
    "item_22_21": [
        21.166666666666664,
        20.25
    ],
    "item_22_22": [
        21.166666666666664,
        21.166666666666664
    ],
    "item_22_23": [
        21.166666666666664,
        22.083333333333336
    ],
    "item_22_24": [
        21.166666666666664,
        23.0
    ],
    "item_22_3": [
        21.166666666666664,
        3.75
    ],
    "item_22_4": [
        21.166666666666664,
        4.666666666666666
    ],
    "item_22_5": [
        21.166666666666664,
        5.583333333333334
    ],
    "item_22_6": [
        21.166666666666664,
        6.5
    ],
    "item_22_7": [
        21.166666666666664,
        7.416666666666667
    ],
    "item_22_8": [
        21.166666666666664,
        8.333333333333332
    ],
    "item_22_9": [
        21.166666666666664,
        9.25
    ],
    "item_23_0": [
        22.083333333333336,
        1.0
    ],
    "item_23_1": [
        22.083333333333336,
        1.9166666666666665
    ],
    "item_23_10": [
        22.083333333333336,
        10.166666666666668
    ],
    "item_23_11": [
        22.083333333333336,
        11.083333333333332
    ],
    "item_23_12": [
        22.083333333333336,
        12.0
    ],
    "item_23_13": [
        22.083333333333336,
        12.916666666666666
    ],
    "item_23_14": [
        22.083333333333336,
        13.833333333333334
    ],
    "item_23_15": [
        22.083333333333336,
        14.75
    ],
    "item_23_16": [
        22.083333333333336,
        15.666666666666666
    ],
    "item_23_17": [
        22.083333333333336,
        16.583333333333336
    ],
    "item_23_18": [
        22.083333333333336,
        17.5
    ],
    "item_23_19": [
        22.083333333333336,
        18.416666666666664
    ],
    "item_23_2": [
        22.083333333333336,
        2.833333333333333
    ],
    "item_23_20": [
        22.083333333333336,
        19.333333333333336
    ],
    "item_23_21": [
        22.083333333333336,
        20.25
    ],
    "item_23_22": [
        22.083333333333336,
        21.166666666666664
    ],
    "item_23_23": [
        22.083333333333336,
        22.083333333333336
    ],
    "item_23_24": [
        22.083333333333336,
        23.0
    ],
    "item_23_3": [
        22.083333333333336,
        3.75
    ],
    "item_23_4": [
        22.083333333333336,
        4.666666666666666
    ],
    "item_23_5": [
        22.083333333333336,
        5.583333333333334
    ],
    "item_23_6": [
        22.083333333333336,
        6.5
    ],
    "item_23_7": [
        22.083333333333336,
        7.416666666666667
    ],
    "item_23_8": [
        22.083333333333336,
        8.333333333333332
    ],
    "item_23_9": [
        22.083333333333336,
        9.25
    ],
    "item_2_0": [
        2.833333333333333,
        1.0
    ],
    "item_2_1": [
        2.833333333333333,
        1.9166666666666665
    ],
    "item_2_10": [
        2.833333333333333,
        10.166666666666668
    ],
    "item_2_11": [
        2.833333333333333,
        11.083333333333332
    ],
    "item_2_12": [
        2.833333333333333,
        12.0
    ],
    "item_2_14": [
        2.833333333333333,
        13.833333333333334
    ],
    "item_2_15": [
        2.833333333333333,
        14.75
    ],
    "item_2_16": [
        2.833333333333333,
        15.666666666666666
    ],
    "item_2_17": [
        2.833333333333333,
        16.583333333333336
    ],
    "item_2_2": [
        2.833333333333333,
        2.833333333333333
    ],
    "item_2_20": [
        2.833333333333333,
        19.333333333333336
    ],
    "item_2_21": [
        2.833333333333333,
        20.25
    ],
    "item_2_3": [
        2.833333333333333,
        3.75
    ],
    "item_2_4": [
        2.833333333333333,
        4.666666666666666
    ],
    "item_2_5": [
        2.833333333333333,
        5.583333333333334
    ],
    "item_2_6": [
        2.833333333333333,
        6.5
    ],
    "item_2_7": [
        2.833333333333333,
        7.416666666666667
    ],
    "item_2_8": [
        2.833333333333333,
        8.333333333333332
    ],
    "item_2_9": [
        2.833333333333333,
        9.25
    ],
    "item_3_0": [
        3.75,
        1.0
    ],
    "item_3_1": [
        3.75,
        1.9166666666666665
    ],
    "item_3_10": [
        3.75,
        10.166666666666668
    ],
    "item_3_11": [
        3.75,
        11.083333333333332
    ],
    "item_3_12": [
        3.75,
        12.0
    ],
    "item_3_14": [
        3.75,
        13.833333333333334
    ],
    "item_3_15": [
        3.75,
        14.75
    ],
    "item_3_16": [
        3.75,
        15.666666666666666
    ],
    "item_3_17": [
        3.75,
        16.583333333333336
    ],
    "item_3_18": [
        3.75,
        17.5
    ],
    "item_3_2": [
        3.75,
        2.833333333333333
    ],
    "item_3_21": [
        3.75,
        20.25
    ],
    "item_3_3": [
        3.75,
        3.75
    ],
    "item_3_4": [
        3.75,
        4.666666666666666
    ],
    "item_3_5": [
        3.75,
        5.583333333333334
    ],
    "item_3_6": [
        3.75,
        6.5
    ],
    "item_3_7": [
        3.75,
        7.416666666666667
    ],
    "item_3_8": [
        3.75,
        8.333333333333332
    ],
    "item_3_9": [
        3.75,
        9.25
    ],
    "item_4_0": [
        4.666666666666666,
        1.0
    ],
    "item_4_1": [
        4.666666666666666,
        1.9166666666666665
    ],
    "item_4_10": [
        4.666666666666666,
        10.166666666666668
    ],
    "item_4_11": [
        4.666666666666666,
        11.083333333333332
    ],
    "item_4_12": [
        4.666666666666666,
        12.0
    ],
    "item_4_14": [
        4.666666666666666,
        13.833333333333334
    ],
    "item_4_15": [
        4.666666666666666,
        14.75
    ],
    "item_4_16": [
        4.666666666666666,
        15.666666666666666
    ],
    "item_4_17": [
        4.666666666666666,
        16.583333333333336
    ],
    "item_4_18": [
        4.666666666666666,
        17.5
    ],
    "item_4_20": [
        4.666666666666666,
        19.333333333333336
    ],
    "item_4_21": [
        4.666666666666666,
        20.25
    ],
    "item_4_3": [
        19.8,
        14.6
    ],
    "item_4_4": [
        18,
        18
    ],
    "item_4_5": [
        4.666666666666666,
        5.583333333333334
    ],
    "item_4_6": [
        4.666666666666666,
        6.5
    ],
    "item_4_7": [
        4.666666666666666,
        7.416666666666667
    ],
    "item_4_8": [
        4.666666666666666,
        8.333333333333332
    ],
    "item_4_9": [
        4.666666666666666,
        9.25
    ],
    "item_5_0": [
        5.583333333333334,
        1.0
    ],
    "item_5_1": [
        5.583333333333334,
        1.9166666666666665
    ],
    "item_5_10": [
        5.583333333333334,
        10.166666666666668
    ],
    "item_5_11": [
        5.583333333333334,
        11.083333333333332
    ],
    "item_5_14": [
        5.583333333333334,
        13.833333333333334
    ],
    "item_5_15": [
        5.583333333333334,
        14.75
    ],
    "item_5_16": [
        5.583333333333334,
        15.666666666666666
    ],
    "item_5_17": [
        5.583333333333334,
        16.583333333333336
    ],
    "item_5_18": [
        5.583333333333334,
        17.5
    ],
    "item_5_20": [
        5.583333333333334,
        19.333333333333336
    ],
    "item_5_21": [
        5.583333333333334,
        20.25
    ],
    "item_5_5": [
        5.583333333333334,
        5.583333333333334
    ],
    "item_5_6": [
        5.583333333333334,
        6.5
    ],
    "item_5_7": [
        5.583333333333334,
        7.416666666666667
    ],
    "item_5_8": [
        5.583333333333334,
        8.333333333333332
    ],
    "item_5_9": [
        5.583333333333334,
        9.25
    ],
    "item_6_0": [
        6.5,
        1.0
    ],
    "item_6_1": [
        6.5,
        1.9166666666666665
    ],
    "item_6_10": [
        6.5,
        10.166666666666668
    ],
    "item_6_11": [
        6.5,
        11.083333333333332
    ],
    "item_6_14": [
        6.5,
        13.833333333333334
    ],
    "item_6_15": [
        6.5,
        14.75
    ],
    "item_6_16": [
        6.5,
        15.666666666666666
    ],
    "item_6_17": [
        6.5,
        16.583333333333336
    ],
    "item_6_18": [
        6.5,
        17.5
    ],
    "item_6_19": [
        6.5,
        18.416666666666664
    ],
    "item_6_2": [
        6.5,
        2.833333333333333
    ],
    "item_6_20": [
        6.5,
        19.333333333333336
    ],
    "item_6_21": [
        6.5,
        20.25
    ],
    "item_6_3": [
        6.5,
        3.75
    ],
    "item_6_4": [
        6.5,
        4.666666666666666
    ],
    "item_6_5": [
        6.5,
        5.583333333333334
    ],
    "item_6_6": [
        6.5,
        6.5
    ],
    "item_6_7": [
        6.5,
        7.416666666666667
    ],
    "item_6_8": [
        6.5,
        8.333333333333332
    ],
    "item_6_9": [
        6.5,
        9.25
    ],
    "item_7_0": [
        7.416666666666667,
        1.0
    ],
    "item_7_1": [
        7.416666666666667,
        1.9166666666666665
    ],
    "item_7_10": [
        7.416666666666667,
        10.166666666666668
    ],
    "item_7_11": [
        7.416666666666667,
        11.083333333333332
    ],
    "item_7_14": [
        7.416666666666667,
        13.833333333333334
    ],
    "item_7_15": [
        7.416666666666667,
        14.75
    ],
    "item_7_16": [
        7.416666666666667,
        15.666666666666666
    ],
    "item_7_17": [
        7.416666666666667,
        16.583333333333336
    ],
    "item_7_18": [
        7.416666666666667,
        17.5
    ],
    "item_7_19": [
        7.416666666666667,
        18.416666666666664
    ],
    "item_7_2": [
        7.416666666666667,
        2.833333333333333
    ],
    "item_7_20": [
        7.416666666666667,
        19.333333333333336
    ],
    "item_7_21": [
        7.416666666666667,
        20.25
    ],
    "item_7_22": [
        7.416666666666667,
        21.166666666666664
    ],
    "item_7_3": [
        7.416666666666667,
        3.75
    ],
    "item_7_4": [
        7.416666666666667,
        4.666666666666666
    ],
    "item_7_5": [
        7.416666666666667,
        5.583333333333334
    ],
    "item_7_6": [
        7.416666666666667,
        6.5
    ],
    "item_7_7": [
        7.416666666666667,
        7.416666666666667
    ],
    "item_7_8": [
        7.416666666666667,
        8.333333333333332
    ],
    "item_7_9": [
        7.416666666666667,
        9.25
    ],
    "item_8_0": [
        8.333333333333332,
        1.0
    ],
    "item_8_1": [
        8.333333333333332,
        1.9166666666666665
    ],
    "item_8_16": [
        8.333333333333332,
        15.666666666666666
    ],
    "item_8_17": [
        8.333333333333332,
        16.583333333333336
    ],
    "item_8_18": [
        8.333333333333332,
        17.5
    ],
    "item_8_19": [
        8.333333333333332,
        18.416666666666664
    ],
    "item_8_2": [
        8.333333333333332,
        2.833333333333333
    ],
    "item_8_20": [
        8.333333333333332,
        19.333333333333336
    ],
    "item_8_21": [
        8.333333333333332,
        20.25
    ],
    "item_8_22": [
        8.333333333333332,
        21.166666666666664
    ],
    "item_8_3": [
        8.333333333333332,
        3.75
    ],
    "item_8_4": [
        8.333333333333332,
        4.666666666666666
    ],
    "item_9_0": [
        9.25,
        1.0
    ],
    "item_9_1": [
        9.25,
        1.9166666666666665
    ],
    "item_9_16": [
        9.25,
        15.666666666666666
    ],
    "item_9_17": [
        9.25,
        16.583333333333336
    ],
    "item_9_18": [
        9.25,
        17.5
    ],
    "item_9_19": [
        9.25,
        18.416666666666664
    ],
    "item_9_2": [
        9.25,
        2.833333333333333
    ],
    "item_9_20": [
        9.25,
        19.333333333333336
    ],
    "item_9_21": [
        9.25,
        20.25
    ],
    "item_9_22": [
        9.25,
        21.166666666666664
    ],
    "item_9_3": [
        9.25,
        3.75
    ],
    "item_9_4": [
        9.25,
        4.666666666666666
    ],
    "item_9_5": [
        9.25,
        5.583333333333334
    ],
    "k_friction": 0.2,
    "omega_max": 0.3,
    "phi_max": 0.3,
    "polygon0": [
        [
            1,
            17
        ],
        [
            6,
            18
        ],
        [
            4,
            20
        ]
    ],
    "polygon1": [
        [
            10,
            18
        ],
        [
            15,
            18
        ],
        [
            12,
            15
        ]
    ],
    "polygon2": [
        [
            2,
            13
        ],
        [
            10,
            13
        ],
        [
            8,
            11
        ]
    ],
    "polygon3": [
        [
            4,
            2
        ],
        [
            6,
            2
        ],
        [
            6,
            5
        ],
        [
            4,
            5
        ]
    ],
    "polygon4": [
        [
            12,
            7
        ],
        [
            14,
            7
        ],
        [
            14,
            12
        ],
        [
            12,
            12
        ]
    ],
    "polygon5": [
        [
            18,
            7
        ],
        [
            20,
            7
        ],
        [
            20,
            12
        ],
        [
            18,
            12
        ]
    ],
    "polygon6": [
        [
            18,
            2
        ],
        [
            20,
            2
        ],
        [
            20,
            4
        ],
        [
            18,
            4
        ]
    ],
    "polygon7": [
        [
            8,
            5
        ],
        [
            10,
            6
        ],
        [
            10,
            15
        ],
        [
            8,
            15
        ]
    ],
    "sensor_range": 20,
    "start_pos0": [
        1,
        2
    ],
    "start_pos1": [
        1,
        4
    ],
    "start_pos2": [
        3,
        2
    ],
    "start_pos3": [
        3,
        4
    ],
    "start_vel": [
        1.1,
        1.2
    ],
    "v_max": 2.0
}